
{{alias}}( N, alpha, x, stride )
    Adds a constant to each double-precision floating-point strided array
    element and computes the sum using ordinary recursive summation.

    The `N` and `stride` parameters determine which elements in `x` are accessed
    at runtime.

    Indexing is relative to the first index. To introduce an offset, use a typed
    array view.

    If `N <= 0`, the function returns `0.0`.

    Parameters
    ----------
    N: integer
        Number of indexed elements.

    alpha: number
        Constant.

    x: Float64Array
        Input array.

    stride: integer
        Index increment.

    Returns
    -------
    out: number
        Sum.

    Examples
    --------
    // Standard Usage:
    > var x = new {{alias:@stdlib/array/float64}}( [ 1.0, -2.0, 2.0 ] );
    > {{alias}}( x.length, 5.0, x, 1 )
    16.0

    // Using `N` and `stride` parameters:
    > x = new {{alias:@stdlib/array/float64}}( [ -2.0, 1.0, 1.0, -5.0, 2.0, -1.0 ] );
    > var N = {{alias:@stdlib/math/base/special/floor}}( x.length / 2 );
    > var stride = 2;
    > {{alias}}( N, 5.0, x, stride )
    16.0

    // Using view offsets:
    > var x0 = new {{alias:@stdlib/array/float64}}( [ 1.0, -2.0, 3.0, 2.0, 5.0, -1.0 ] );
    > var x1 = new {{alias:@stdlib/array/float64}}( x0.buffer, x0.BYTES_PER_ELEMENT*1 );
    > N = {{alias:@stdlib/math/base/special/floor}}( x0.length / 2 );
    > stride = 2;
    > {{alias}}( N, 5.0, x1, stride )
    14.0

{{alias}}.ndarray( N, alpha, x, stride, offset )
    Adds a constant to each double-precision floating-point strided array
    element and computes the sum using ordinary recursive summation and
    alternative indexing semantics.

    While typed array views mandate a view offset based on the underlying
    buffer, the `offset` parameter supports indexing semantics based on a
    starting index.

    Parameters
    ----------
    N: integer
        Number of indexed elements.

    alpha: number
        Constant.

    x: Float64Array
        Input array.

    stride: integer
        Index increment.

    offset: integer
        Starting index.

    Returns
    -------
    out: number
        Sum.

    Examples
    --------
    // Standard Usage:
    > var x = new {{alias:@stdlib/array/float64}}( [ 1.0, -2.0, 2.0 ] );
    > {{alias}}.ndarray( x.length, 5.0, x, 1, 0 )
    16.0

    // Using offset parameter:
    > var x = new {{alias:@stdlib/array/float64}}( [ 1.0, -2.0, 3.0, 2.0, 5.0, -1.0 ] );
    > var N = {{alias:@stdlib/math/base/special/floor}}( x.length / 2 );
    > {{alias}}.ndarray( N, 5.0, x, 2, 1 )
    14.0

    See Also
    --------

