[
	"float64", "float64",
	"float64", "generic",

	"float32", "float32",
	"float32", "float64",
	"float32", "generic",

	"generic", "generic",

	"int32", "float64",
	"int32", "generic",

	"int16", "float32",
	"int16", "float64",
	"int16", "generic",

	"int8", "float32",
	"int8", "float64",
	"int8", "generic",

	"uint32", "float64",
	"uint32", "generic",

	"uint16", "float32",
	"uint16", "float64",
	"uint16", "generic",

	"uint8", "float32",
	"uint8", "float64",
	"uint8", "generic",

	"uint8c", "float32",
	"uint8c", "float64",
	"uint8c", "generic"
]
